[SWF]
  Header:
    Version: 37
    Compression: None
    FileLength: 99
    FileLengthCompressed: 99
    FrameSize: (400,300)
    FrameRate: 30
    FrameCount: 1
  Tags:
    [69:FileAttributes] AS3: true, HasMetadata: false, UseDirectBlit: false, UseGPU: false, UseNetwork: false
    [09:SetBackgroundColor] Color: #0000ff
    [86:DefineSceneAndFrameLabelData] 
      Scenes:
        [0] Frame: 0, Name: Scene 1
    [02:DefineShape] ID: 1, Bounds: (2000,6000,2000,4000)
      FillStyles:
        [1] [SWFFillStyle] Type: 00 (solid), Color: #ff0000
      ShapeRecords:
        [0] [SWFShapeRecordStyleChange] MoveTo: 2000,2000, FillStyle1: 1
        [1] [SWFShapeRecordStraightEdge] Horizontal: 4000
        [2] [SWFShapeRecordStraightEdge] Vertical: 2000
        [3] [SWFShapeRecordStraightEdge] Horizontal: -4000
        [4] [SWFShapeRecordStraightEdge] Vertical: -2000
        [5] [SWFShapeRecordEnd]
    [26:PlaceObject2] Depth: 1, CharacterID: 1, Matrix: (1,1,0,0,0,0)
    [01:ShowFrame] 
    [00:End] 
  Scenes:
    Name: Scene 1, Frame: 0
  Frames:
    [0] Start: 0, Length: 6
      Defined CharacterIDs: 1
      Depth: 1, CharacterId: 1, PlacedAt: 4, IsKeyframe